module gitlab.com/ribtoks/mink

go 1.23

toolchain go1.24.1

require (
	github.com/PuerkitoBio/goquery v1.10.2
	github.com/gocolly/colly v1.2.0
	github.com/microcosm-cc/bluemonday v1.0.27
	github.com/olekukonko/tablewriter v0.0.5
	github.com/sirupsen/logrus v1.9.3
)

require (
	github.com/andybalholm/cascadia v1.3.3 // indirect
	github.com/antchfx/htmlquery v1.2.3 // indirect
	github.com/antchfx/xmlquery v1.2.4 // indirect
	github.com/antchfx/xpath v1.1.8 // indirect
	github.com/aymerick/douceur v0.2.0 // indirect
	github.com/gobwas/glob v0.2.3 // indirect
	github.com/golang/groupcache v0.0.0-20200121045136-8c9f03a8e57e // indirect
	github.com/golang/protobuf v1.4.2 // indirect
	github.com/gorilla/css v1.0.1 // indirect
	github.com/kennygrant/sanitize v1.2.4 // indirect
	github.com/mattn/go-runewidth v0.0.9 // indirect
	github.com/saintfish/chardet v0.0.0-20120816061221-3af4cd4741ca // indirect
	github.com/temoto/robotstxt v1.1.1 // indirect
	golang.org/x/net v0.35.0 // indirect
	golang.org/x/sys v0.30.0 // indirect
	golang.org/x/text v0.22.0 // indirect
	google.golang.org/appengine v1.6.6 // indirect
	google.golang.org/protobuf v1.24.0 // indirect
)
